{
  "development": {
    "username": "postgres",
    "password": "",
    "database": "secure_node",
    "host": "127.0.0.1",
    "dialect": "postgres"
  },
  "test": {
    "username": "postgres",
    "password": "",
    "database": "secure_node",
    "host": "127.0.0.1",
    "dialect": "postgres"
  },
  "production": {
    "username": "postgres",
    "password": "",
    "database": "secure_node",
    "host": "127.0.0.1",
    "dialect": "postgres"
  }
}